%YAML 1.1
%TAG !u! tag:unity3d.com,2011:
--- !u!114 &11400000
MonoBehaviour:
  m_ObjectHideFlags: 0
  m_CorrespondingSourceObject: {fileID: 0}
  m_PrefabInstance: {fileID: 0}
  m_PrefabAsset: {fileID: 0}
  m_GameObject: {fileID: 0}
  m_Enabled: 1
  m_EditorHideFlags: 0
  m_Script: {fileID: 11500000, guid: baf01bfa3d1b4394c9051211e57f5fc3, type: 3}
  m_Name: Crystal
  m_EditorClassIdentifier: Assembly-CSharp::Item
  GUID: 1
  Name: Cristal
  description: cristales magicos, usados para obtener habilidades
  canBeSold: 0
  Value: 1
  icon: {fileID: 21300000, guid: 6b3b8ef492edc304f9230dc368e8af5c, type: 3}
