%YAML 1.1
%TAG !u! tag:unity3d.com,2011:
--- !u!114 &11400000
MonoBehaviour:
  m_ObjectHideFlags: 0
  m_CorrespondingSourceObject: {fileID: 0}
  m_PrefabInstance: {fileID: 0}
  m_PrefabAsset: {fileID: 0}
  m_GameObject: {fileID: 0}
  m_Enabled: 1
  m_EditorHideFlags: 0
  m_Script: {fileID: 11500000, guid: 714171879a8b5fe43add878a3af18a85, type: 3}
  m_Name: Reabastecimiento
  m_EditorClassIdentifier: 
  GUID: 20
  rarity: {fileID: 11400000, guid: 3d614f00e18d34e478d76f9c3aa00d8d, type: 2}
  cardImage: {fileID: 0}
  Name: Reabastecimiento
  description: 
  type: 3
  effect:
    isOffensive: 0
    isUsingDice: 0
    isSupport: 0
    isSingleTarget: 0
    numTargets: 0
    numDices: 0
    isAddingSpecialEffects: 0
    costEnergy: 0
    costMana: 0
    keyEffects: 
    valueEffects: []
    damageRoll: 0
    fixedValue: 0
    mult: 0
    damageBlockRoll: 0
    hpHeal: 0
    armorGiven: 0
    magicArmorGiven: 0
    keyDamageReduction: 
    valueDamageReduction: []
    keyExtraEffect: 
    valueExtraEffect: []
    increaseNumberActions: 0
  listOfEffects:
  - typeOfEffect: 7
    isAlwaysInEffect: 0
    chanceToAppear: 0
    isUsingDice: 1
    numDices: 2
    maxDiceRoll: 4
    fixedValue: 0
    duration: 0
  - typeOfEffect: 10
    isAlwaysInEffect: 0
    chanceToAppear: 0
    isUsingDice: 1
    numDices: 4
    maxDiceRoll: 4
    fixedValue: 0
    duration: 0
  isSingleTarget: 1
  numTargets: 0
  costMana: 0
  costEnergy: 0
  costHP: 0
  attribute: 0
  requirements:
    strength: 0
    wisdom: 0
    intelligence: 0
    constitution: 0
    dexterity: 0
    vitality: 0
  Unlocked: 1
