%YAML 1.1
%TAG !u! tag:unity3d.com,2011:
--- !u!114 &11400000
MonoBehaviour:
  m_ObjectHideFlags: 0
  m_CorrespondingSourceObject: {fileID: 0}
  m_PrefabInstance: {fileID: 0}
  m_PrefabAsset: {fileID: 0}
  m_GameObject: {fileID: 0}
  m_Enabled: 1
  m_EditorHideFlags: 0
  m_Script: {fileID: 11500000, guid: 714171879a8b5fe43add878a3af18a85, type: 3}
  m_Name: Vigor
  m_EditorClassIdentifier: 
  GUID: 7
  rarity: {fileID: 11400000, guid: 3d614f00e18d34e478d76f9c3aa00d8d, type: 2}
  cardImage: {fileID: 0}
  Name: Vigor
  description: "Aumenta en 2d4 la vida m\xE1xima del jugador durante 2 turnos"
  type: 2
  effect:
    isOffensive: 0
    isUsingDice: 1
    isSupport: 0
    isSingleTarget: 1
    numTargets: 0
    numDices: 2
    isAddingSpecialEffects: 0
    costEnergy: 25
    costMana: 0
    keyEffects: 
    valueEffects: []
    damageRoll: 0
    fixedValue: 0
    mult: 1
    damageBlockRoll: 0
    hpHeal: 4
    armorGiven: 0
    magicArmorGiven: 0
    keyDamageReduction: 
    valueDamageReduction: []
    keyExtraEffect: 
    valueExtraEffect: []
    increaseNumberActions: 0
  listOfEffects:
  - typeOfEffect: 7
    isAlwaysInEffect: 1
    chanceToAppear: 0
    isUsingDice: 1
    numDices: 2
    maxDiceRoll: 4
    fixedValue: 0
    duration: 0
  isSingleTarget: 1
  numTargets: 1
  costMana: 0
  costEnergy: 25
  costHP: 0
  attribute: 3
  requirements:
    strength: 0
    wisdom: 0
    intelligence: 0
    constitution: 0
    dexterity: 0
    vitality: 0
  Unlocked: 1
