%YAML 1.1
%TAG !u! tag:unity3d.com,2011:
--- !u!74 &7400000
AnimationClip:
  m_ObjectHideFlags: 0
  m_CorrespondingSourceObject: {fileID: 0}
  m_PrefabInstance: {fileID: 0}
  m_PrefabAsset: {fileID: 0}
  m_Name: bubble_1
  serializedVersion: 6
  m_Legacy: 0
  m_Compressed: 0
  m_UseHighQualityCurve: 1
  m_RotationCurves: []
  m_CompressedRotationCurves: []
  m_EulerCurves: []
  m_PositionCurves: []
  m_ScaleCurves: []
  m_FloatCurves: []
  m_PPtrCurves:
  - curve:
    - time: 0
      value: {fileID: -3768847427291375985, guid: cda717ab622509f41afbaa91e294d349,
        type: 3}
    - time: 0.083333336
      value: {fileID: -8858893520843569197, guid: cda717ab622509f41afbaa91e294d349,
        type: 3}
    - time: 0.16666667
      value: {fileID: 2664437418505065541, guid: cda717ab622509f41afbaa91e294d349,
        type: 3}
    - time: 0.25
      value: {fileID: -6744293385514764224, guid: cda717ab622509f41afbaa91e294d349,
        type: 3}
    - time: 0.33333334
      value: {fileID: -4507551848008731109, guid: cda717ab622509f41afbaa91e294d349,
        type: 3}
    - time: 0.41666666
      value: {fileID: 5308490417589580316, guid: cda717ab622509f41afbaa91e294d349,
        type: 3}
    - time: 0.5
      value: {fileID: -7740546824579216375, guid: cda717ab622509f41afbaa91e294d349,
        type: 3}
    - time: 0.5833333
      value: {fileID: -4241409683901830778, guid: cda717ab622509f41afbaa91e294d349,
        type: 3}
    - time: 0.6666667
      value: {fileID: 3768585534378265597, guid: cda717ab622509f41afbaa91e294d349,
        type: 3}
    - time: 0.75
      value: {fileID: 4402065986027641544, guid: cda717ab622509f41afbaa91e294d349,
        type: 3}
    attribute: m_Sprite
    path: 
    classID: 212
    script: {fileID: 0}
  m_SampleRate: 12
  m_WrapMode: 0
  m_Bounds:
    m_Center: {x: 0, y: 0, z: 0}
    m_Extent: {x: 0, y: 0, z: 0}
  m_ClipBindingConstant:
    genericBindings:
    - serializedVersion: 2
      path: 0
      attribute: 0
      script: {fileID: 0}
      typeID: 212
      customType: 23
      isPPtrCurve: 1
    pptrCurveMapping:
    - {fileID: -3768847427291375985, guid: cda717ab622509f41afbaa91e294d349, type: 3}
    - {fileID: -8858893520843569197, guid: cda717ab622509f41afbaa91e294d349, type: 3}
    - {fileID: 2664437418505065541, guid: cda717ab622509f41afbaa91e294d349, type: 3}
    - {fileID: -6744293385514764224, guid: cda717ab622509f41afbaa91e294d349, type: 3}
    - {fileID: -4507551848008731109, guid: cda717ab622509f41afbaa91e294d349, type: 3}
    - {fileID: 5308490417589580316, guid: cda717ab622509f41afbaa91e294d349, type: 3}
    - {fileID: -7740546824579216375, guid: cda717ab622509f41afbaa91e294d349, type: 3}
    - {fileID: -4241409683901830778, guid: cda717ab622509f41afbaa91e294d349, type: 3}
    - {fileID: 3768585534378265597, guid: cda717ab622509f41afbaa91e294d349, type: 3}
    - {fileID: 4402065986027641544, guid: cda717ab622509f41afbaa91e294d349, type: 3}
  m_AnimationClipSettings:
    serializedVersion: 2
    m_AdditiveReferencePoseClip: {fileID: 0}
    m_AdditiveReferencePoseTime: 0
    m_StartTime: 0
    m_StopTime: 0.8333333
    m_OrientationOffsetY: 0
    m_Level: 0
    m_CycleOffset: 0
    m_HasAdditiveReferencePose: 0
    m_LoopTime: 1
    m_LoopBlend: 0
    m_LoopBlendOrientation: 0
    m_LoopBlendPositionY: 0
    m_LoopBlendPositionXZ: 0
    m_KeepOriginalOrientation: 0
    m_KeepOriginalPositionY: 1
    m_KeepOriginalPositionXZ: 0
    m_HeightFromFeet: 0
    m_Mirror: 0
  m_EditorCurves: []
  m_EulerEditorCurves: []
  m_HasGenericRootTransform: 0
  m_HasMotionFloatCurves: 0
  m_Events: []
