%YAML 1.1
%TAG !u! tag:unity3d.com,2011:
--- !u!114 &11400000
MonoBehaviour:
  m_ObjectHideFlags: 0
  m_CorrespondingSourceObject: {fileID: 0}
  m_PrefabInstance: {fileID: 0}
  m_PrefabAsset: {fileID: 0}
  m_GameObject: {fileID: 0}
  m_Enabled: 1
  m_EditorHideFlags: 0
  m_Script: {fileID: 11500000, guid: 13b75c95f34a00d4e8c04f76b73312e6, type: 3}
  m_Name: FireAnimationTile
  m_EditorClassIdentifier: 
  m_AnimatedSprites:
  - {fileID: 7470217015063282736, guid: 3dbb6a6d0fc5f694f926aa336bb4f279, type: 3}
  - {fileID: 8445186504645142777, guid: 3dbb6a6d0fc5f694f926aa336bb4f279, type: 3}
  - {fileID: 540689667861790925, guid: 3dbb6a6d0fc5f694f926aa336bb4f279, type: 3}
  - {fileID: 4794835333742939833, guid: 3dbb6a6d0fc5f694f926aa336bb4f279, type: 3}
  - {fileID: -138598500050378642, guid: 3dbb6a6d0fc5f694f926aa336bb4f279, type: 3}
  - {fileID: 7247376349041765118, guid: 3dbb6a6d0fc5f694f926aa336bb4f279, type: 3}
  m_MinSpeed: 3
  m_MaxSpeed: 3
  m_AnimationStartTime: 0
  m_AnimationStartFrame: 0
  m_TileColliderType: 2
