%YAML 1.1
%TAG !u! tag:unity3d.com,2011:
--- !u!78 &1
TagManager:
  serializedVersion: 2
  tags:
  - egg
  - UIManager
  - viejo
  - CombatManager
  - Entity
  - EnemyTargetArrow
  - AllyTargetArrow
  - SupportTargetArrow
  - DropArea
  - PlayerManager
  - InteractuableItem
  - mazEntry
  - PlayerTest
  - Canvas
  - EncounterController
  - NoWalkable
  - CameraLimits
  - QuestManager
  - NpcQuestGiver
  - NPC
  - Chest
  - mazExit
  - QuestArea
  - CollectionArea
  - DeckArea
  - FinalEncounter
  - UIDungeonManager
  - Treasure
  - Door
  - QuestAreaEntry
  - AutoMessage
  - DungeonAudio
  - MiniHolder
  - HouseDoor
  - Txt
  - StoreExit
  - AudioController
  - NPCStore
  layers:
  - Default
  - TransparentFX
  - Ignore Raycast
  - 
  - Water
  - UI
  - 
  - 
  - Player
  - 
  - 
  - 
  - 
  - 
  - 
  - 
  - 
  - 
  - 
  - 
  - 
  - 
  - 
  - 
  - 
  - 
  - 
  - 
  - 
  - 
  - 
  - 
  m_SortingLayers:
  - name: Default
    uniqueID: 0
    locked: 0
