%YAML 1.1
%TAG !u! tag:unity3d.com,2011:
--- !u!114 &11400000
MonoBehaviour:
  m_ObjectHideFlags: 0
  m_CorrespondingSourceObject: {fileID: 0}
  m_PrefabInstance: {fileID: 0}
  m_PrefabAsset: {fileID: 0}
  m_GameObject: {fileID: 0}
  m_Enabled: 1
  m_EditorHideFlags: 0
  m_Script: {fileID: 11500000, guid: d345738bb5f31464fba204278135f453, type: 3}
  m_Name: KillTrollsQuest_001
  m_EditorClassIdentifier: 
  questID: KillTrollsQuest001
  questName: La cueva de Nambehek
  questDescription: El Abuelo me ha pedido que vaya a la cueva que hay al norte a
    eliminar tres trolls.
  isMain: 1
  increaseAdventureRank: 0
  reward:
  - {fileID: 11400000, guid: d1712ed1364716244a1fc8bda67cbfc5, type: 2}
  rewardItemsAmmount: 
  rewardWhenComplete:
    MaxGold: 0
    maxCrystals: 0
    cardDropProbability: 0
    possibleCards: []
    valuableItemDropProbability: 0
    possibleValuableItemDrop:
    - {fileID: 11400000, guid: 89b544989ff80f84f92e79ef89f02a4d, type: 2}
    - {fileID: 11400000, guid: 832cf5858be423942a089670b6809e77, type: 2}
  numberOfTargets: 2
  targets:
  - targetID: Troll
    typeOfTargets: 0
    numberOfTypes: 3
    numberCompleted: 0
    targetDescription: Eliminar troll
    checkTarget: 0
  - targetID: Abuelo
    typeOfTargets: 1
    numberOfTypes: 1
    numberCompleted: 0
    targetDescription: Volver a hablar con el abuelo
    checkTarget: 0
  requirements:
    playerLevelRequired: 0
    levelCheck: 0
    completedQuestID: 
    questIDCompleteCheck: 0
