%YAML 1.1
%TAG !u! tag:unity3d.com,2011:
--- !u!114 &11400000
MonoBehaviour:
  m_ObjectHideFlags: 0
  m_CorrespondingSourceObject: {fileID: 0}
  m_PrefabInstance: {fileID: 0}
  m_PrefabAsset: {fileID: 0}
  m_GameObject: {fileID: 0}
  m_Enabled: 1
  m_EditorHideFlags: 0
  m_Script: {fileID: 11500000, guid: 9d1514134bc4fbd41bb739b1b9a49231, type: 3}
  m_Name: ExteriorHillAutotile
  m_EditorClassIdentifier: 
  m_DefaultSprite: {fileID: -5703332583801307144, guid: 98ab4f91b0b1c5841826236b8a019da0,
    type: 3}
  m_DefaultGameObject: {fileID: 0}
  m_DefaultColliderType: 1
  m_TilingRules:
  - m_Id: 0
    m_Sprites:
    - {fileID: -845144219236687400, guid: 98ab4f91b0b1c5841826236b8a019da0, type: 3}
    - {fileID: -7064220622572970029, guid: 7e7bdeef39672e9489d2c61b737c6a85, type: 3}
    - {fileID: -7655527456229970072, guid: 7e7bdeef39672e9489d2c61b737c6a85, type: 3}
    - {fileID: 9222073198021860894, guid: 7e7bdeef39672e9489d2c61b737c6a85, type: 3}
    - {fileID: 6886954874036816709, guid: 7e7bdeef39672e9489d2c61b737c6a85, type: 3}
    - {fileID: -791584091045098441, guid: 7e7bdeef39672e9489d2c61b737c6a85, type: 3}
    m_GameObject: {fileID: 0}
    m_MinAnimationSpeed: 4
    m_MaxAnimationSpeed: 4
    m_PerlinScale: 0.5
    m_Output: 0
    m_ColliderType: 2
    m_RandomTransform: 0
    m_Neighbors: 01000000010000000200000002000000
    m_NeighborPositions:
    - {x: 0, y: -1, z: 0}
    - {x: 1, y: 0, z: 0}
    - {x: -1, y: 0, z: 0}
    - {x: 0, y: 1, z: 0}
    m_RuleTransform: 0
  - m_Id: 1
    m_Sprites:
    - {fileID: -4706666279928939462, guid: 98ab4f91b0b1c5841826236b8a019da0, type: 3}
    - {fileID: 7149751655148466542, guid: 7e7bdeef39672e9489d2c61b737c6a85, type: 3}
    - {fileID: -277465505295718648, guid: 7e7bdeef39672e9489d2c61b737c6a85, type: 3}
    - {fileID: 2673405975860536578, guid: 7e7bdeef39672e9489d2c61b737c6a85, type: 3}
    - {fileID: 8664258913517867861, guid: 7e7bdeef39672e9489d2c61b737c6a85, type: 3}
    - {fileID: -4676164812573971036, guid: 7e7bdeef39672e9489d2c61b737c6a85, type: 3}
    m_GameObject: {fileID: 0}
    m_MinAnimationSpeed: 4
    m_MaxAnimationSpeed: 4
    m_PerlinScale: 0.5
    m_Output: 0
    m_ColliderType: 2
    m_RandomTransform: 0
    m_Neighbors: 01000000020000000200000001000000
    m_NeighborPositions:
    - {x: 0, y: -1, z: 0}
    - {x: 1, y: 0, z: 0}
    - {x: 0, y: 1, z: 0}
    - {x: -1, y: 0, z: 0}
    m_RuleTransform: 0
  - m_Id: 2
    m_Sprites:
    - {fileID: 6385310527253849416, guid: 98ab4f91b0b1c5841826236b8a019da0, type: 3}
    - {fileID: -2740290441555968558, guid: 7e7bdeef39672e9489d2c61b737c6a85, type: 3}
    - {fileID: -1984912068192422301, guid: 7e7bdeef39672e9489d2c61b737c6a85, type: 3}
    - {fileID: 3991568953898065832, guid: 7e7bdeef39672e9489d2c61b737c6a85, type: 3}
    - {fileID: -8209864517686610857, guid: 7e7bdeef39672e9489d2c61b737c6a85, type: 3}
    - {fileID: 3067914300574464226, guid: 7e7bdeef39672e9489d2c61b737c6a85, type: 3}
    m_GameObject: {fileID: 0}
    m_MinAnimationSpeed: 4
    m_MaxAnimationSpeed: 4
    m_PerlinScale: 0.5
    m_Output: 0
    m_ColliderType: 2
    m_RandomTransform: 0
    m_Neighbors: 01000000020000000100000001000000
    m_NeighborPositions:
    - {x: 0, y: -1, z: 0}
    - {x: 0, y: 1, z: 0}
    - {x: -1, y: 0, z: 0}
    - {x: 1, y: 0, z: 0}
    m_RuleTransform: 0
  - m_Id: 3
    m_Sprites:
    - {fileID: -7276307996191324774, guid: 98ab4f91b0b1c5841826236b8a019da0, type: 3}
    - {fileID: 8182098260121118935, guid: 7e7bdeef39672e9489d2c61b737c6a85, type: 3}
    - {fileID: 4764199537259104258, guid: 7e7bdeef39672e9489d2c61b737c6a85, type: 3}
    - {fileID: 4837683350894182502, guid: 7e7bdeef39672e9489d2c61b737c6a85, type: 3}
    - {fileID: -112274519614173984, guid: 7e7bdeef39672e9489d2c61b737c6a85, type: 3}
    - {fileID: 1766344596152092709, guid: 7e7bdeef39672e9489d2c61b737c6a85, type: 3}
    m_GameObject: {fileID: 0}
    m_MinAnimationSpeed: 4
    m_MaxAnimationSpeed: 4
    m_PerlinScale: 0.5
    m_Output: 0
    m_ColliderType: 2
    m_RandomTransform: 0
    m_Neighbors: 01000000010000000100000002000000
    m_NeighborPositions:
    - {x: 0, y: -1, z: 0}
    - {x: 1, y: 0, z: 0}
    - {x: 0, y: 1, z: 0}
    - {x: -1, y: 0, z: 0}
    m_RuleTransform: 0
  - m_Id: 4
    m_Sprites:
    - {fileID: -1089869976287141990, guid: 98ab4f91b0b1c5841826236b8a019da0, type: 3}
    - {fileID: 3528412097376761061, guid: 7e7bdeef39672e9489d2c61b737c6a85, type: 3}
    - {fileID: 5554385710187510954, guid: 7e7bdeef39672e9489d2c61b737c6a85, type: 3}
    - {fileID: 7932998438403008720, guid: 7e7bdeef39672e9489d2c61b737c6a85, type: 3}
    - {fileID: -3436972985557200425, guid: 7e7bdeef39672e9489d2c61b737c6a85, type: 3}
    - {fileID: -4752926688460143644, guid: 7e7bdeef39672e9489d2c61b737c6a85, type: 3}
    m_GameObject: {fileID: 0}
    m_MinAnimationSpeed: 4
    m_MaxAnimationSpeed: 4
    m_PerlinScale: 0.5
    m_Output: 0
    m_ColliderType: 2
    m_RandomTransform: 0
    m_Neighbors: 01000000020000000100000001000000
    m_NeighborPositions:
    - {x: 0, y: -1, z: 0}
    - {x: 1, y: 0, z: 0}
    - {x: 0, y: 1, z: 0}
    - {x: -1, y: 0, z: 0}
    m_RuleTransform: 0
  - m_Id: 5
    m_Sprites:
    - {fileID: 2564852635751371117, guid: 98ab4f91b0b1c5841826236b8a019da0, type: 3}
    - {fileID: 7589216813700886492, guid: 7e7bdeef39672e9489d2c61b737c6a85, type: 3}
    - {fileID: -7535478741479667852, guid: 7e7bdeef39672e9489d2c61b737c6a85, type: 3}
    - {fileID: -3810958048984561151, guid: 7e7bdeef39672e9489d2c61b737c6a85, type: 3}
    - {fileID: -648622525111770709, guid: 7e7bdeef39672e9489d2c61b737c6a85, type: 3}
    - {fileID: -7304551095005300818, guid: 7e7bdeef39672e9489d2c61b737c6a85, type: 3}
    m_GameObject: {fileID: 0}
    m_MinAnimationSpeed: 4
    m_MaxAnimationSpeed: 4
    m_PerlinScale: 0.5
    m_Output: 0
    m_ColliderType: 2
    m_RandomTransform: 0
    m_Neighbors: 02000000010000000100000001000000
    m_NeighborPositions:
    - {x: 0, y: -1, z: 0}
    - {x: -1, y: 0, z: 0}
    - {x: 1, y: 0, z: 0}
    - {x: 0, y: 1, z: 0}
    m_RuleTransform: 0
  - m_Id: 6
    m_Sprites:
    - {fileID: -1988041942659793188, guid: 98ab4f91b0b1c5841826236b8a019da0, type: 3}
    - {fileID: -1403313436544283329, guid: 7e7bdeef39672e9489d2c61b737c6a85, type: 3}
    - {fileID: -8321245184024852466, guid: 7e7bdeef39672e9489d2c61b737c6a85, type: 3}
    - {fileID: 7132283965199722134, guid: 7e7bdeef39672e9489d2c61b737c6a85, type: 3}
    - {fileID: -728935382416359837, guid: 7e7bdeef39672e9489d2c61b737c6a85, type: 3}
    - {fileID: 3852130545581952413, guid: 7e7bdeef39672e9489d2c61b737c6a85, type: 3}
    m_GameObject: {fileID: 0}
    m_MinAnimationSpeed: 4
    m_MaxAnimationSpeed: 4
    m_PerlinScale: 0.5
    m_Output: 0
    m_ColliderType: 2
    m_RandomTransform: 0
    m_Neighbors: 02000000010000000200000001000000
    m_NeighborPositions:
    - {x: 0, y: -1, z: 0}
    - {x: -1, y: 0, z: 0}
    - {x: 1, y: 0, z: 0}
    - {x: 0, y: 1, z: 0}
    m_RuleTransform: 0
  - m_Id: 7
    m_Sprites:
    - {fileID: 8045162556182767330, guid: 98ab4f91b0b1c5841826236b8a019da0, type: 3}
    - {fileID: -7587358898429269245, guid: 7e7bdeef39672e9489d2c61b737c6a85, type: 3}
    - {fileID: -6897728908044195664, guid: 7e7bdeef39672e9489d2c61b737c6a85, type: 3}
    - {fileID: -1361355544519992118, guid: 7e7bdeef39672e9489d2c61b737c6a85, type: 3}
    - {fileID: 7399503764901216808, guid: 7e7bdeef39672e9489d2c61b737c6a85, type: 3}
    - {fileID: -3038589630337922546, guid: 7e7bdeef39672e9489d2c61b737c6a85, type: 3}
    m_GameObject: {fileID: 0}
    m_MinAnimationSpeed: 4
    m_MaxAnimationSpeed: 4
    m_PerlinScale: 0.5
    m_Output: 0
    m_ColliderType: 2
    m_RandomTransform: 0
    m_Neighbors: 02000000020000000100000001000000
    m_NeighborPositions:
    - {x: 0, y: -1, z: 0}
    - {x: -1, y: 0, z: 0}
    - {x: 1, y: 0, z: 0}
    - {x: 0, y: 1, z: 0}
    m_RuleTransform: 0
  - m_Id: 8
    m_Sprites:
    - {fileID: 9059229110685925256, guid: 98ab4f91b0b1c5841826236b8a019da0, type: 3}
    - {fileID: -6238488895901244263, guid: 7e7bdeef39672e9489d2c61b737c6a85, type: 3}
    - {fileID: 4536351271737616518, guid: 7e7bdeef39672e9489d2c61b737c6a85, type: 3}
    - {fileID: 7568787888595813849, guid: 7e7bdeef39672e9489d2c61b737c6a85, type: 3}
    - {fileID: -482456799359236121, guid: 7e7bdeef39672e9489d2c61b737c6a85, type: 3}
    - {fileID: 6902284584699679307, guid: 7e7bdeef39672e9489d2c61b737c6a85, type: 3}
    m_GameObject: {fileID: 0}
    m_MinAnimationSpeed: 4
    m_MaxAnimationSpeed: 4
    m_PerlinScale: 0.5
    m_Output: 0
    m_ColliderType: 2
    m_RandomTransform: 0
    m_Neighbors: 0100000001000000010000000100000002000000
    m_NeighborPositions:
    - {x: 0, y: 1, z: 0}
    - {x: -1, y: 0, z: 0}
    - {x: 0, y: -1, z: 0}
    - {x: 1, y: 0, z: 0}
    - {x: 1, y: -1, z: 0}
    m_RuleTransform: 0
  - m_Id: 9
    m_Sprites:
    - {fileID: 3739654718125088787, guid: 98ab4f91b0b1c5841826236b8a019da0, type: 3}
    - {fileID: -1916410562978113939, guid: 7e7bdeef39672e9489d2c61b737c6a85, type: 3}
    - {fileID: -8920792594555487476, guid: 7e7bdeef39672e9489d2c61b737c6a85, type: 3}
    - {fileID: -4229829437754917149, guid: 7e7bdeef39672e9489d2c61b737c6a85, type: 3}
    - {fileID: -3290517354953624646, guid: 7e7bdeef39672e9489d2c61b737c6a85, type: 3}
    - {fileID: 6377773531733907690, guid: 7e7bdeef39672e9489d2c61b737c6a85, type: 3}
    m_GameObject: {fileID: 0}
    m_MinAnimationSpeed: 4
    m_MaxAnimationSpeed: 4
    m_PerlinScale: 0.5
    m_Output: 0
    m_ColliderType: 2
    m_RandomTransform: 0
    m_Neighbors: 0100000001000000010000000100000002000000
    m_NeighborPositions:
    - {x: 0, y: 1, z: 0}
    - {x: -1, y: 0, z: 0}
    - {x: 0, y: -1, z: 0}
    - {x: 1, y: 0, z: 0}
    - {x: -1, y: -1, z: 0}
    m_RuleTransform: 0
  - m_Id: 10
    m_Sprites:
    - {fileID: -8744770789230719990, guid: 98ab4f91b0b1c5841826236b8a019da0, type: 3}
    - {fileID: -4844317818707517318, guid: 7e7bdeef39672e9489d2c61b737c6a85, type: 3}
    - {fileID: -946276049765788173, guid: 7e7bdeef39672e9489d2c61b737c6a85, type: 3}
    - {fileID: -5707843748849500776, guid: 7e7bdeef39672e9489d2c61b737c6a85, type: 3}
    - {fileID: -6346088978314744917, guid: 7e7bdeef39672e9489d2c61b737c6a85, type: 3}
    - {fileID: 6056963680769630102, guid: 7e7bdeef39672e9489d2c61b737c6a85, type: 3}
    m_GameObject: {fileID: 0}
    m_MinAnimationSpeed: 4
    m_MaxAnimationSpeed: 4
    m_PerlinScale: 0.5
    m_Output: 0
    m_ColliderType: 2
    m_RandomTransform: 0
    m_Neighbors: 0100000001000000010000000100000002000000
    m_NeighborPositions:
    - {x: 0, y: 1, z: 0}
    - {x: -1, y: 0, z: 0}
    - {x: 0, y: -1, z: 0}
    - {x: 1, y: 0, z: 0}
    - {x: -1, y: 1, z: 0}
    m_RuleTransform: 0
  - m_Id: 11
    m_Sprites:
    - {fileID: -6675336575540379612, guid: 98ab4f91b0b1c5841826236b8a019da0, type: 3}
    - {fileID: -7777547554887281591, guid: 7e7bdeef39672e9489d2c61b737c6a85, type: 3}
    - {fileID: 6238014177090980973, guid: 7e7bdeef39672e9489d2c61b737c6a85, type: 3}
    - {fileID: -6695140022184126725, guid: 7e7bdeef39672e9489d2c61b737c6a85, type: 3}
    - {fileID: 1796212280717025147, guid: 7e7bdeef39672e9489d2c61b737c6a85, type: 3}
    - {fileID: -5703476428944351747, guid: 7e7bdeef39672e9489d2c61b737c6a85, type: 3}
    m_GameObject: {fileID: 0}
    m_MinAnimationSpeed: 4
    m_MaxAnimationSpeed: 4
    m_PerlinScale: 0.5
    m_Output: 0
    m_ColliderType: 2
    m_RandomTransform: 0
    m_Neighbors: 0100000001000000010000000100000002000000
    m_NeighborPositions:
    - {x: 0, y: 1, z: 0}
    - {x: -1, y: 0, z: 0}
    - {x: 0, y: -1, z: 0}
    - {x: 1, y: 0, z: 0}
    - {x: 1, y: 1, z: 0}
    m_RuleTransform: 0
