%YAML 1.1
%TAG !u! tag:unity3d.com,2011:
--- !u!114 &11400000
MonoBehaviour:
  m_ObjectHideFlags: 0
  m_CorrespondingSourceObject: {fileID: 0}
  m_PrefabInstance: {fileID: 0}
  m_PrefabAsset: {fileID: 0}
  m_GameObject: {fileID: 0}
  m_Enabled: 1
  m_EditorHideFlags: 0
  m_Script: {fileID: 11500000, guid: 13b75c95f34a00d4e8c04f76b73312e6, type: 3}
  m_Name: water_light
  m_EditorClassIdentifier: 
  m_AnimatedSprites:
  - {fileID: 3049831310477178707, guid: 98ab4f91b0b1c5841826236b8a019da0, type: 3}
  - {fileID: 6246011630081217217, guid: 98ab4f91b0b1c5841826236b8a019da0, type: 3}
  m_MinSpeed: 0.52
  m_MaxSpeed: 0.86
  m_AnimationStartTime: 0
  m_AnimationStartFrame: 0
  m_TileColliderType: 0
