%YAML 1.1
%TAG !u! tag:unity3d.com,2011:
--- !u!114 &11400000
MonoBehaviour:
  m_ObjectHideFlags: 0
  m_CorrespondingSourceObject: {fileID: 0}
  m_PrefabInstance: {fileID: 0}
  m_PrefabAsset: {fileID: 0}
  m_GameObject: {fileID: 0}
  m_Enabled: 1
  m_EditorHideFlags: 0
  m_Script: {fileID: 11500000, guid: 13b75c95f34a00d4e8c04f76b73312e6, type: 3}
  m_Name: water_topRight
  m_EditorClassIdentifier: 
  m_AnimatedSprites:
  - {fileID: -4124057691748712743, guid: 7e7bdeef39672e9489d2c61b737c6a85, type: 3}
  - {fileID: 7149751655148466542, guid: 7e7bdeef39672e9489d2c61b737c6a85, type: 3}
  - {fileID: -277465505295718648, guid: 7e7bdeef39672e9489d2c61b737c6a85, type: 3}
  - {fileID: 2673405975860536578, guid: 7e7bdeef39672e9489d2c61b737c6a85, type: 3}
  - {fileID: 8664258913517867861, guid: 7e7bdeef39672e9489d2c61b737c6a85, type: 3}
  m_MinSpeed: 4
  m_MaxSpeed: 4
  m_AnimationStartTime: 0
  m_AnimationStartFrame: 0
  m_TileColliderType: 2
