%YAML 1.1
%TAG !u! tag:unity3d.com,2011:
--- !u!114 &11400000
MonoBehaviour:
  m_ObjectHideFlags: 0
  m_CorrespondingSourceObject: {fileID: 0}
  m_PrefabInstance: {fileID: 0}
  m_PrefabAsset: {fileID: 0}
  m_GameObject: {fileID: 0}
  m_Enabled: 1
  m_EditorHideFlags: 0
  m_Script: {fileID: 11500000, guid: e2ea5142e43bcd8418d36695766cb1e4, type: 3}
  m_Name: Vial of healing
  m_EditorClassIdentifier: 
  GUID: 666005
  Name: Vial de vida
  description: 
  canBeSold: 1
  canBeEquip: 1
  Value: 0
  icon: {fileID: 728351757702236552, guid: 9bb56c1e966041c4794648808ede5141, type: 3}
  equipmentAction: {fileID: 11400000, guid: add8f0d210f80d24c9f0bd1d826417d8, type: 2}
  moddedStats:
    strength: 0
    wisdom: 0
    intelligence: 0
    constitution: 0
    dexterity: 0
    vitality: 0
  bonusAttr:
    hp: 0
    maxHp: 0
    armor: 0
    mArmor: 0
    energy: 0
    maxEnergy: 0
    mana: 0
    maxMana: 0
    strMult: 0
    intMult: 0
    energyRecoverPerTurn: 0
    manaRecoverPerTurn: 0
  typeOfEquipment: 2
