%YAML 1.1
%TAG !u! tag:unity3d.com,2011:
--- !u!114 &11400000
MonoBehaviour:
  m_ObjectHideFlags: 0
  m_CorrespondingSourceObject: {fileID: 0}
  m_PrefabInstance: {fileID: 0}
  m_PrefabAsset: {fileID: 0}
  m_GameObject: {fileID: 0}
  m_Enabled: 1
  m_EditorHideFlags: 0
  m_Script: {fileID: 11500000, guid: 2beff2f9ea301474f97901e1ebe6465b, type: 3}
  m_Name: CompletedQuest_001
  m_EditorClassIdentifier: 
  conversationID: 
  allLines:
  - speaker: {fileID: 11400000, guid: 7796c4c04900b084faffd08d8dd21cfe, type: 2}
    dialogue: "\xA1As\xED se hace jovenzuelo! Sab\xEDa que eras de fiar.\r\nTienes
      mi permiso para entrar al Gremio de aventureros. Adem\xE1s toma esto como recompensa,
      has hecho un buen trabajo.\r"
  haveOptions: 0
  options: []
  optionsID: []
  question: {fileID: 0}
