%YAML 1.1
%TAG !u! tag:unity3d.com,2011:
--- !u!114 &11400000
MonoBehaviour:
  m_ObjectHideFlags: 0
  m_CorrespondingSourceObject: {fileID: 0}
  m_PrefabInstance: {fileID: 0}
  m_PrefabAsset: {fileID: 0}
  m_GameObject: {fileID: 0}
  m_Enabled: 1
  m_EditorHideFlags: 0
  m_Script: {fileID: 11500000, guid: 2beff2f9ea301474f97901e1ebe6465b, type: 3}
  m_Name: SayQuestion_001
  m_EditorClassIdentifier: 
  conversationID: SayQuestion001
  questRefusedStartLine: 1
  allLines:
  - speaker: {fileID: 11400000, guid: 7796c4c04900b084faffd08d8dd21cfe, type: 2}
    dialogue: "Al oeste se encuentra el Gremio de aventureros, pero no te podemos
      aceptar as\xED como as\xED. \r\n"
  - speaker: {fileID: 11400000, guid: 7796c4c04900b084faffd08d8dd21cfe, type: 2}
    dialogue: "Deber\xE1s entrar a las cuevas que se encuentran al norte de aqu\xED
      y haber matado al menos 3 trolls. \xBFCrees que podr\xE1s?"
  haveOptions: 1
  options:
  - "Claro que s\xED."
  - No me interesa, hasta luego.
  optionsID:
  - AcceptQuest001
  - Refuse
  question: {fileID: 0}
