%YAML 1.1
%TAG !u! tag:unity3d.com,2011:
--- !u!114 &11400000
MonoBehaviour:
  m_ObjectHideFlags: 0
  m_CorrespondingSourceObject: {fileID: 0}
  m_PrefabInstance: {fileID: 0}
  m_PrefabAsset: {fileID: 0}
  m_GameObject: {fileID: 0}
  m_Enabled: 1
  m_EditorHideFlags: 0
  m_Script: {fileID: 11500000, guid: 6d80f148423b1ab49831ad37be6a5547, type: 3}
  m_Name: TreasureBasic3
  m_EditorClassIdentifier: 
  listPossibleItems:
  - {fileID: 11400000, guid: 41b9c9e07a36d0c4db63a40d6f1500fb, type: 2}
  - {fileID: 11400000, guid: 20e2f59bbf304fa46a018a8a8b4abe4e, type: 2}
  listDropChance: 3200000032000000
  listMaxAmmount: 0100000001000000
